0000001100000000
1111111111111111
0000110000000000
1111111111100000
0001001000000000
0000000111111111
0001111100000000
1111111111111111
0010010100000000
0010101100100000
0011011100000000
0111100000000000
0000000000000011
1001100000000000
